{
    "materials": {
        "GROUND": "FFFFFF",
        "X": "FF0000",
        "WALL": "000000",
        "WALL_RUBBLE": "808080"
    },
    "maps": [
        "res/map.png",
        "res/map-l2.png"
    ]
}
